…
Once the data had been loaded, I tested the data set by finding the
sample size, the mean, the standard deviation, the variance, the
Standard Error of the Mean (SEM), and the upper and lower confidence
intervals. Using this data, I made graphs that displayed the mean and
used the SEM and confidence intervals to make error bars. Graphs were
made using the ggplot funtion (Wickham, 2016).

## Results

    ## # A tibble: 63 x 6
    ##    phage        host           Cluster subcluster    bp    gc
    ##    <chr>        <chr>          <chr>   <chr>      <dbl> <dbl>
    ##  1 ManAs        Microbacterium EE      None       17362  68.5
    ##  2 Jannah       Microbacterium EE      None       17428  68.6
    ##  3 BrokMonster  Microbacterium EE      None       17433  68.9
    ##  4 MrGreen      Microbacterium EE      None       17421  68.6
    ##  5 Josuke       Microbacterium EE      None       17453  68.7
    ##  6 Leafy        Microbacterium EE      None       17407  68.7
    ##  7 Eightball    Microbacterium EE      None       17439  68.7
    ##  8 Pondwater    Microbacterium EE      None       17362  68.5
    ##  9 Yasuo        Microbacterium EE      None       17433  68.7
    ## 10 Anseraureola Microbacterium EE      None       17425  68.7
    ## # … with 53 more rows
…
